<?xml version="1.0" encoding="UTF-8" standalone="no"?>
<!DOCTYPE svg PUBLIC "-//W3C//DTD SVG 1.1//EN"
 "http://www.w3.org/Graphics/SVG/1.1/DTD/svg11.dtd">
<!-- Generated by graphviz version 2.43.0 (0)
 -->
<!-- Title: shinda::socket::server::SocketServer Pages: 1 -->
<svg width="1528pt" height="667pt"
 viewBox="0.00 0.00 1527.50 667.00" xmlns="http://www.w3.org/2000/svg" xmlns:xlink="http://www.w3.org/1999/xlink">
<g id="graph0" class="graph" transform="scale(1 1) rotate(0) translate(4 663)">
<title>shinda::socket::server::SocketServer</title>
<!-- Node1 -->
<g id="node1" class="node">
<title>Node1</title>
<g id="a_node1"><a xlink:title=" ">
<polygon fill="#bfbfbf" stroke="black" points="578,-0.5 578,-200.5 701,-200.5 701,-0.5 578,-0.5"/>
<text text-anchor="start" x="586" y="-188.5" font-family="Helvetica,sans-Serif" font-size="10.00">shinda::socket::server</text>
<text text-anchor="middle" x="639.5" y="-177.5" font-family="Helvetica,sans-Serif" font-size="10.00">::SocketServer</text>
<polyline fill="none" stroke="black" points="578,-170.5 701,-170.5 "/>
<text text-anchor="middle" x="639.5" y="-158.5" font-family="Helvetica,sans-Serif" font-size="10.00"> </text>
<polyline fill="none" stroke="black" points="578,-151.5 701,-151.5 "/>
<text text-anchor="start" x="586" y="-139.5" font-family="Helvetica,sans-Serif" font-size="10.00">+ SocketServer()</text>
<text text-anchor="start" x="586" y="-128.5" font-family="Helvetica,sans-Serif" font-size="10.00">+ ~SocketServer()</text>
<text text-anchor="start" x="586" y="-117.5" font-family="Helvetica,sans-Serif" font-size="10.00">+ start()</text>
<text text-anchor="start" x="586" y="-106.5" font-family="Helvetica,sans-Serif" font-size="10.00">+ stop()</text>
<text text-anchor="start" x="586" y="-95.5" font-family="Helvetica,sans-Serif" font-size="10.00">+ join()</text>
<text text-anchor="start" x="586" y="-84.5" font-family="Helvetica,sans-Serif" font-size="10.00">+ registerCallbacks()</text>
<text text-anchor="start" x="586" y="-73.5" font-family="Helvetica,sans-Serif" font-size="10.00">+ sendMessage()</text>
<text text-anchor="start" x="586" y="-62.5" font-family="Helvetica,sans-Serif" font-size="10.00">&#45; doClose()</text>
<text text-anchor="start" x="586" y="-51.5" font-family="Helvetica,sans-Serif" font-size="10.00">&#45; startListen()</text>
<text text-anchor="start" x="586" y="-40.5" font-family="Helvetica,sans-Serif" font-size="10.00">&#45; startAccept()</text>
<text text-anchor="start" x="586" y="-29.5" font-family="Helvetica,sans-Serif" font-size="10.00">&#45; acceptHandler()</text>
<text text-anchor="start" x="586" y="-18.5" font-family="Helvetica,sans-Serif" font-size="10.00">&#45; regSession()</text>
<text text-anchor="start" x="586" y="-7.5" font-family="Helvetica,sans-Serif" font-size="10.00">&#45; deleteSession()</text>
</a>
</g>
</g>
<!-- Node2 -->
<g id="node2" class="node">
<title>Node2</title>
<g id="a_node2"><a xlink:href="classshinda_1_1socket_1_1server_1_1ISocketServer.html" target="_top" xlink:title=" ">
<polygon fill="none" stroke="black" points="0,-248.5 0,-437.5 123,-437.5 123,-248.5 0,-248.5"/>
<text text-anchor="start" x="8" y="-425.5" font-family="Helvetica,sans-Serif" font-size="10.00">shinda::socket::server</text>
<text text-anchor="middle" x="61.5" y="-414.5" font-family="Helvetica,sans-Serif" font-size="10.00">::ISocketServer</text>
<polyline fill="none" stroke="black" points="0,-407.5 123,-407.5 "/>
<text text-anchor="middle" x="61.5" y="-395.5" font-family="Helvetica,sans-Serif" font-size="10.00"> </text>
<polyline fill="none" stroke="black" points="0,-388.5 123,-388.5 "/>
<text text-anchor="start" x="8" y="-376.5" font-family="Helvetica,sans-Serif" font-size="10.00">+ ISocketServer()</text>
<text text-anchor="start" x="8" y="-365.5" font-family="Helvetica,sans-Serif" font-size="10.00">+ ~ISocketServer()</text>
<text text-anchor="start" x="8" y="-354.5" font-family="Helvetica,sans-Serif" font-size="10.00">+ ISocketServer()</text>
<text text-anchor="start" x="8" y="-343.5" font-family="Helvetica,sans-Serif" font-size="10.00">+ ISocketServer()</text>
<text text-anchor="start" x="8" y="-332.5" font-family="Helvetica,sans-Serif" font-size="10.00">+ operator=()</text>
<text text-anchor="start" x="8" y="-321.5" font-family="Helvetica,sans-Serif" font-size="10.00">+ operator=()</text>
<text text-anchor="start" x="8" y="-310.5" font-family="Helvetica,sans-Serif" font-size="10.00">+ operator new[]()</text>
<text text-anchor="start" x="8" y="-299.5" font-family="Helvetica,sans-Serif" font-size="10.00">+ start()</text>
<text text-anchor="start" x="8" y="-288.5" font-family="Helvetica,sans-Serif" font-size="10.00">+ stop()</text>
<text text-anchor="start" x="8" y="-277.5" font-family="Helvetica,sans-Serif" font-size="10.00">+ join()</text>
<text text-anchor="start" x="8" y="-266.5" font-family="Helvetica,sans-Serif" font-size="10.00">+ registerCallbacks()</text>
<text text-anchor="start" x="8" y="-255.5" font-family="Helvetica,sans-Serif" font-size="10.00">+ sendMessage()</text>
</a>
</g>
</g>
<!-- Node2&#45;&gt;Node1 -->
<g id="edge1" class="edge">
<title>Node2&#45;&gt;Node1</title>
<path fill="none" stroke="midnightblue" d="M131.3,-248.83C131.7,-248.55 132.1,-248.28 132.5,-248 272.71,-151.54 476.38,-117.93 577.59,-106.75"/>
<polygon fill="none" stroke="midnightblue" points="128.92,-246.25 123.15,-255.14 133.2,-251.79 128.92,-246.25"/>
</g>
<!-- Node3 -->
<g id="node3" class="node">
<title>Node3</title>
<g id="a_node3"><a xlink:title=" ">
<polygon fill="none" stroke="#bfbfbf" points="141.5,-314.5 141.5,-371.5 207.5,-371.5 207.5,-314.5 141.5,-314.5"/>
<text text-anchor="middle" x="174.5" y="-359.5" font-family="Helvetica,sans-Serif" font-size="10.00">signal_set</text>
<polyline fill="none" stroke="#bfbfbf" points="141.5,-352.5 207.5,-352.5 "/>
<text text-anchor="middle" x="174.5" y="-340.5" font-family="Helvetica,sans-Serif" font-size="10.00"> </text>
<polyline fill="none" stroke="#bfbfbf" points="141.5,-333.5 207.5,-333.5 "/>
<text text-anchor="middle" x="174.5" y="-321.5" font-family="Helvetica,sans-Serif" font-size="10.00"> </text>
</a>
</g>
</g>
<!-- Node3&#45;&gt;Node1 -->
<g id="edge2" class="edge">
<title>Node3&#45;&gt;Node1</title>
<path fill="none" stroke="#404040" d="M181.4,-314.48C187.69,-294.06 198.76,-266.65 216.5,-248 309.74,-149.93 471.83,-117.49 565.98,-106.78"/>
<polygon fill="none" stroke="#404040" points="566.02,-106.77 571.56,-102.15 577.95,-105.49 572.41,-110.11 566.02,-106.77"/>
<text text-anchor="middle" x="267" y="-222" font-family="Helvetica,sans-Serif" font-size="10.00"> &#45;signals_</text>
</g>
<!-- Node4 -->
<g id="node4" class="node">
<title>Node4</title>
<g id="a_node4"><a xlink:title=" ">
<polygon fill="none" stroke="#bfbfbf" points="225.5,-314.5 225.5,-371.5 293.5,-371.5 293.5,-314.5 225.5,-314.5"/>
<text text-anchor="middle" x="259.5" y="-359.5" font-family="Helvetica,sans-Serif" font-size="10.00">io_context</text>
<polyline fill="none" stroke="#bfbfbf" points="225.5,-352.5 293.5,-352.5 "/>
<text text-anchor="middle" x="259.5" y="-340.5" font-family="Helvetica,sans-Serif" font-size="10.00"> </text>
<polyline fill="none" stroke="#bfbfbf" points="225.5,-333.5 293.5,-333.5 "/>
<text text-anchor="middle" x="259.5" y="-321.5" font-family="Helvetica,sans-Serif" font-size="10.00"> </text>
</a>
</g>
</g>
<!-- Node4&#45;&gt;Node1 -->
<g id="edge3" class="edge">
<title>Node4&#45;&gt;Node1</title>
<path fill="none" stroke="#404040" d="M266.93,-314.12C273.52,-293.79 284.87,-266.65 302.5,-248 373.74,-172.64 490.39,-133.92 566.05,-115.69"/>
<polygon fill="none" stroke="#404040" points="566.14,-115.66 571.08,-110.4 577.83,-112.93 572.9,-118.19 566.14,-115.66"/>
<text text-anchor="middle" x="361.5" y="-222" font-family="Helvetica,sans-Serif" font-size="10.00"> &#45;ioContext_</text>
</g>
<!-- Node5 -->
<g id="node5" class="node">
<title>Node5</title>
<g id="a_node5"><a xlink:title=" ">
<polygon fill="none" stroke="#bfbfbf" points="312,-314.5 312,-371.5 391,-371.5 391,-314.5 312,-314.5"/>
<text text-anchor="middle" x="351.5" y="-359.5" font-family="Helvetica,sans-Serif" font-size="10.00">socketStatus</text>
<polyline fill="none" stroke="#bfbfbf" points="312,-352.5 391,-352.5 "/>
<text text-anchor="middle" x="351.5" y="-340.5" font-family="Helvetica,sans-Serif" font-size="10.00"> </text>
<polyline fill="none" stroke="#bfbfbf" points="312,-333.5 391,-333.5 "/>
<text text-anchor="middle" x="351.5" y="-321.5" font-family="Helvetica,sans-Serif" font-size="10.00"> </text>
</a>
</g>
</g>
<!-- Node5&#45;&gt;Node1 -->
<g id="edge4" class="edge">
<title>Node5&#45;&gt;Node1</title>
<path fill="none" stroke="#404040" d="M360.89,-314.46C368.8,-294.3 381.69,-267.22 399.5,-248 446.49,-197.3 514.93,-157.86 566.71,-132.74"/>
<polygon fill="none" stroke="#404040" points="566.99,-132.61 570.69,-126.42 577.83,-127.45 574.13,-133.64 566.99,-132.61"/>
<text text-anchor="middle" x="449" y="-222" font-family="Helvetica,sans-Serif" font-size="10.00"> &#45;status_</text>
</g>
<!-- Node6 -->
<g id="node6" class="node">
<title>Node6</title>
<g id="a_node6"><a xlink:title=" ">
<polygon fill="none" stroke="#bfbfbf" points="409,-314.5 409,-371.5 478,-371.5 478,-314.5 409,-314.5"/>
<text text-anchor="middle" x="443.5" y="-359.5" font-family="Helvetica,sans-Serif" font-size="10.00">std::mutex</text>
<polyline fill="none" stroke="#bfbfbf" points="409,-352.5 478,-352.5 "/>
<text text-anchor="middle" x="443.5" y="-340.5" font-family="Helvetica,sans-Serif" font-size="10.00"> </text>
<polyline fill="none" stroke="#bfbfbf" points="409,-333.5 478,-333.5 "/>
<text text-anchor="middle" x="443.5" y="-321.5" font-family="Helvetica,sans-Serif" font-size="10.00"> </text>
</a>
</g>
</g>
<!-- Node6&#45;&gt;Node1 -->
<g id="edge5" class="edge">
<title>Node6&#45;&gt;Node1</title>
<path fill="none" stroke="#404040" d="M453.02,-314.2C460.45,-294.67 471.94,-268.48 486.5,-248 509.67,-215.41 540.76,-184.08 568.86,-158.81"/>
<polygon fill="none" stroke="#404040" points="568.89,-158.79 570.72,-151.81 577.87,-150.83 576.03,-157.8 568.89,-158.79"/>
<text text-anchor="middle" x="522.5" y="-222" font-family="Helvetica,sans-Serif" font-size="10.00"> &#45;mx_</text>
</g>
<!-- Node7 -->
<g id="node7" class="node">
<title>Node7</title>
<g id="a_node7"><a xlink:href="classshinda_1_1socket_1_1server_1_1ISocketServerCallbacks.html" target="_top" xlink:title=" ">
<polygon fill="none" stroke="black" points="496,-303.5 496,-382.5 659,-382.5 659,-303.5 496,-303.5"/>
<text text-anchor="start" x="504" y="-370.5" font-family="Helvetica,sans-Serif" font-size="10.00">shinda::socket::server</text>
<text text-anchor="middle" x="577.5" y="-359.5" font-family="Helvetica,sans-Serif" font-size="10.00">::ISocketServerCallbacks</text>
<polyline fill="none" stroke="black" points="496,-352.5 659,-352.5 "/>
<text text-anchor="middle" x="577.5" y="-340.5" font-family="Helvetica,sans-Serif" font-size="10.00"> </text>
<polyline fill="none" stroke="black" points="496,-333.5 659,-333.5 "/>
<text text-anchor="start" x="504" y="-321.5" font-family="Helvetica,sans-Serif" font-size="10.00">+ ~ISocketServerCallbacks()</text>
<text text-anchor="start" x="504" y="-310.5" font-family="Helvetica,sans-Serif" font-size="10.00">+ receivedPlatformMessage()</text>
</a>
</g>
</g>
<!-- Node7&#45;&gt;Node1 -->
<g id="edge6" class="edge">
<title>Node7&#45;&gt;Node1</title>
<path fill="none" stroke="#404040" d="M587.46,-303.36C593.83,-278.64 602.45,-245.22 610.84,-212.68"/>
<polygon fill="none" stroke="#404040" points="610.92,-212.38 608.54,-205.57 613.91,-200.76 616.29,-207.56 610.92,-212.38"/>
<text text-anchor="middle" x="637.5" y="-222" font-family="Helvetica,sans-Serif" font-size="10.00"> &#45;callbacks_</text>
</g>
<!-- Node8 -->
<g id="node8" class="node">
<title>Node8</title>
<g id="a_node8"><a xlink:href="classshinda_1_1utils_1_1IdManager.html" target="_top" xlink:title=" ">
<polygon fill="none" stroke="black" points="677.5,-292.5 677.5,-393.5 811.5,-393.5 811.5,-292.5 677.5,-292.5"/>
<text text-anchor="middle" x="744.5" y="-381.5" font-family="Helvetica,sans-Serif" font-size="10.00">shinda::utils::IdManager</text>
<polyline fill="none" stroke="black" points="677.5,-374.5 811.5,-374.5 "/>
<text text-anchor="middle" x="744.5" y="-362.5" font-family="Helvetica,sans-Serif" font-size="10.00"> </text>
<polyline fill="none" stroke="black" points="677.5,-355.5 811.5,-355.5 "/>
<text text-anchor="start" x="685.5" y="-343.5" font-family="Helvetica,sans-Serif" font-size="10.00">+ IdManager()</text>
<text text-anchor="start" x="685.5" y="-332.5" font-family="Helvetica,sans-Serif" font-size="10.00">+ getId()</text>
<text text-anchor="start" x="685.5" y="-321.5" font-family="Helvetica,sans-Serif" font-size="10.00">+ releaseId()</text>
<text text-anchor="start" x="685.5" y="-310.5" font-family="Helvetica,sans-Serif" font-size="10.00">+ isAnyIdInUse()</text>
<text text-anchor="start" x="685.5" y="-299.5" font-family="Helvetica,sans-Serif" font-size="10.00">+ isAnyIdAvailable()</text>
</a>
</g>
</g>
<!-- Node8&#45;&gt;Node1 -->
<g id="edge7" class="edge">
<title>Node8&#45;&gt;Node1</title>
<path fill="none" stroke="#404040" d="M722.87,-292.46C712.64,-269.03 699.99,-240.05 687.66,-211.8"/>
<polygon fill="none" stroke="#404040" points="687.57,-211.61 681.5,-207.71 682.77,-200.61 688.84,-204.51 687.57,-211.61"/>
<text text-anchor="middle" x="745" y="-222" font-family="Helvetica,sans-Serif" font-size="10.00"> &#45;sessionIdManager_</text>
</g>
<!-- Node9 -->
<g id="node9" class="node">
<title>Node9</title>
<g id="a_node9"><a xlink:title=" ">
<polygon fill="none" stroke="#bfbfbf" points="636,-601.5 636,-658.5 665,-658.5 665,-601.5 636,-601.5"/>
<text text-anchor="middle" x="650.5" y="-646.5" font-family="Helvetica,sans-Serif" font-size="10.00">int</text>
<polyline fill="none" stroke="#bfbfbf" points="636,-639.5 665,-639.5 "/>
<text text-anchor="middle" x="650.5" y="-627.5" font-family="Helvetica,sans-Serif" font-size="10.00"> </text>
<polyline fill="none" stroke="#bfbfbf" points="636,-620.5 665,-620.5 "/>
<text text-anchor="middle" x="650.5" y="-608.5" font-family="Helvetica,sans-Serif" font-size="10.00"> </text>
</a>
</g>
</g>
<!-- Node9&#45;&gt;Node8 -->
<g id="edge8" class="edge">
<title>Node9&#45;&gt;Node8</title>
<path fill="none" stroke="#404040" d="M637.97,-601.37C626.38,-571.75 612.97,-523.76 627.5,-485 637.23,-459.04 650.67,-459.23 668.5,-438 677.88,-426.83 687.78,-414.79 697.21,-403.18"/>
<polygon fill="none" stroke="#404040" points="697.45,-402.88 698.12,-395.7 705.01,-393.56 704.34,-400.74 697.45,-402.88"/>
<text text-anchor="middle" x="650.5" y="-528" font-family="Helvetica,sans-Serif" font-size="10.00"> &#45;maxId_</text>
<text text-anchor="middle" x="650.5" y="-517" font-family="Helvetica,sans-Serif" font-size="10.00">&#45;minId_</text>
<text text-anchor="middle" x="650.5" y="-506" font-family="Helvetica,sans-Serif" font-size="10.00">&#45;numIds_</text>
</g>
<!-- Node12 -->
<g id="node12" class="node">
<title>Node12</title>
<g id="a_node12"><a xlink:title=" ">
<polygon fill="none" stroke="#bfbfbf" points="682.5,-485.5 682.5,-553.5 806.5,-553.5 806.5,-485.5 682.5,-485.5"/>
<text text-anchor="start" x="690.5" y="-541.5" font-family="Helvetica,sans-Serif" font-size="10.00">std::vector&lt; unsigned</text>
<text text-anchor="middle" x="744.5" y="-530.5" font-family="Helvetica,sans-Serif" font-size="10.00"> int &gt;</text>
<polyline fill="none" stroke="#bfbfbf" points="682.5,-523.5 806.5,-523.5 "/>
<text text-anchor="middle" x="744.5" y="-511.5" font-family="Helvetica,sans-Serif" font-size="10.00"> </text>
<polyline fill="none" stroke="#bfbfbf" points="682.5,-504.5 806.5,-504.5 "/>
<text text-anchor="middle" x="744.5" y="-492.5" font-family="Helvetica,sans-Serif" font-size="10.00"> </text>
</a>
</g>
</g>
<!-- Node9&#45;&gt;Node12 -->
<g id="edge12" class="edge">
<title>Node9&#45;&gt;Node12</title>
<path fill="none" stroke="#404040" d="M665.19,-612.05C676.52,-598.97 692.7,-580.29 707.49,-563.22"/>
<polygon fill="none" stroke="#404040" points="707.67,-563.01 708.58,-555.85 715.53,-553.94 714.62,-561.09 707.67,-563.01"/>
<text text-anchor="middle" x="726.5" y="-575" font-family="Helvetica,sans-Serif" font-size="10.00"> +elements</text>
</g>
<!-- Node10 -->
<g id="node10" class="node">
<title>Node10</title>
<g id="a_node10"><a xlink:title=" ">
<polygon fill="none" stroke="#bfbfbf" points="824.5,-491 824.5,-548 936.5,-548 936.5,-491 824.5,-491"/>
<text text-anchor="middle" x="880.5" y="-536" font-family="Helvetica,sans-Serif" font-size="10.00">std::vector&lt; bool &gt;</text>
<polyline fill="none" stroke="#bfbfbf" points="824.5,-529 936.5,-529 "/>
<text text-anchor="middle" x="880.5" y="-517" font-family="Helvetica,sans-Serif" font-size="10.00"> </text>
<polyline fill="none" stroke="#bfbfbf" points="824.5,-510 936.5,-510 "/>
<text text-anchor="middle" x="880.5" y="-498" font-family="Helvetica,sans-Serif" font-size="10.00"> </text>
</a>
</g>
</g>
<!-- Node10&#45;&gt;Node8 -->
<g id="edge9" class="edge">
<title>Node10&#45;&gt;Node8</title>
<path fill="none" stroke="#404040" d="M858.95,-490.85C840.71,-467.45 813.94,-433.1 790.87,-403.5"/>
<polygon fill="none" stroke="#404040" points="790.59,-403.13 783.74,-400.86 783.21,-393.67 790.05,-395.94 790.59,-403.13"/>
<text text-anchor="middle" x="857.5" y="-459" font-family="Helvetica,sans-Serif" font-size="10.00"> &#45;used_</text>
</g>
<!-- Node11 -->
<g id="node11" class="node">
<title>Node11</title>
<g id="a_node11"><a xlink:title=" ">
<polygon fill="none" stroke="#bfbfbf" points="861.5,-601.5 861.5,-658.5 899.5,-658.5 899.5,-601.5 861.5,-601.5"/>
<text text-anchor="middle" x="880.5" y="-646.5" font-family="Helvetica,sans-Serif" font-size="10.00">bool</text>
<polyline fill="none" stroke="#bfbfbf" points="861.5,-639.5 899.5,-639.5 "/>
<text text-anchor="middle" x="880.5" y="-627.5" font-family="Helvetica,sans-Serif" font-size="10.00"> </text>
<polyline fill="none" stroke="#bfbfbf" points="861.5,-620.5 899.5,-620.5 "/>
<text text-anchor="middle" x="880.5" y="-608.5" font-family="Helvetica,sans-Serif" font-size="10.00"> </text>
</a>
</g>
</g>
<!-- Node11&#45;&gt;Node10 -->
<g id="edge10" class="edge">
<title>Node11&#45;&gt;Node10</title>
<path fill="none" stroke="#404040" d="M880.5,-601.34C880.5,-588.84 880.5,-573.84 880.5,-560.18"/>
<polygon fill="none" stroke="#404040" points="880.5,-560.11 876.5,-554.11 880.5,-548.11 884.5,-554.11 880.5,-560.11"/>
<text text-anchor="middle" x="909.5" y="-575" font-family="Helvetica,sans-Serif" font-size="10.00"> +elements</text>
</g>
<!-- Node12&#45;&gt;Node8 -->
<g id="edge11" class="edge">
<title>Node12&#45;&gt;Node8</title>
<path fill="none" stroke="#404040" d="M744.5,-485.27C744.5,-462.8 744.5,-432.45 744.5,-405.65"/>
<polygon fill="none" stroke="#404040" points="744.5,-405.62 740.5,-399.62 744.5,-393.62 748.5,-399.62 744.5,-405.62"/>
<text text-anchor="middle" x="768.5" y="-459" font-family="Helvetica,sans-Serif" font-size="10.00"> &#45;unused_</text>
</g>
<!-- Node13 -->
<g id="node13" class="node">
<title>Node13</title>
<g id="a_node13"><a xlink:title=" ">
<polygon fill="none" stroke="#bfbfbf" points="830,-309 830,-377 981,-377 981,-309 830,-309"/>
<text text-anchor="start" x="838" y="-365" font-family="Helvetica,sans-Serif" font-size="10.00">basic_endpoint&lt; seqpacket</text>
<text text-anchor="middle" x="905.5" y="-354" font-family="Helvetica,sans-Serif" font-size="10.00">_protocol &gt;</text>
<polyline fill="none" stroke="#bfbfbf" points="830,-347 981,-347 "/>
<text text-anchor="middle" x="905.5" y="-335" font-family="Helvetica,sans-Serif" font-size="10.00"> </text>
<polyline fill="none" stroke="#bfbfbf" points="830,-328 981,-328 "/>
<text text-anchor="middle" x="905.5" y="-316" font-family="Helvetica,sans-Serif" font-size="10.00"> </text>
</a>
</g>
</g>
<!-- Node13&#45;&gt;Node1 -->
<g id="edge13" class="edge">
<title>Node13&#45;&gt;Node1</title>
<path fill="none" stroke="#404040" d="M880.34,-308.87C859.94,-283.02 829.71,-246.95 799.5,-219 772.34,-193.88 739.83,-169.17 711.22,-148.94"/>
<polygon fill="none" stroke="#404040" points="711.11,-148.86 703.9,-148.69 701.29,-141.97 708.49,-142.14 711.11,-148.86"/>
<text text-anchor="middle" x="836" y="-222" font-family="Helvetica,sans-Serif" font-size="10.00"> &#45;endpoint_</text>
</g>
<!-- Node14 -->
<g id="node14" class="node">
<title>Node14</title>
<g id="a_node14"><a xlink:title=" ">
<polygon fill="none" stroke="#bfbfbf" points="999,-309 999,-377 1108,-377 1108,-309 999,-309"/>
<text text-anchor="start" x="1007" y="-365" font-family="Helvetica,sans-Serif" font-size="10.00">std::map&lt; sessPtr,</text>
<text text-anchor="middle" x="1053.5" y="-354" font-family="Helvetica,sans-Serif" font-size="10.00"> connection &gt;</text>
<polyline fill="none" stroke="#bfbfbf" points="999,-347 1108,-347 "/>
<text text-anchor="middle" x="1053.5" y="-335" font-family="Helvetica,sans-Serif" font-size="10.00"> </text>
<polyline fill="none" stroke="#bfbfbf" points="999,-328 1108,-328 "/>
<text text-anchor="middle" x="1053.5" y="-316" font-family="Helvetica,sans-Serif" font-size="10.00"> </text>
</a>
</g>
</g>
<!-- Node14&#45;&gt;Node1 -->
<g id="edge14" class="edge">
<title>Node14&#45;&gt;Node1</title>
<path fill="none" stroke="#404040" d="M1037.58,-308.79C1026.66,-288.94 1010.54,-264.46 990.5,-248 907.69,-179.95 788.78,-139.3 712.85,-118.66"/>
<polygon fill="none" stroke="#404040" points="712.63,-118.6 705.81,-120.93 701.04,-115.52 707.87,-113.19 712.63,-118.6"/>
<text text-anchor="middle" x="993" y="-222" font-family="Helvetica,sans-Serif" font-size="10.00"> &#45;sessions_</text>
</g>
<!-- Node15 -->
<g id="node15" class="node">
<title>Node15</title>
<g id="a_node15"><a xlink:title=" ">
<polygon fill="none" stroke="#bfbfbf" points="974.5,-491 974.5,-548 1092.5,-548 1092.5,-491 974.5,-491"/>
<text text-anchor="middle" x="1033.5" y="-536" font-family="Helvetica,sans-Serif" font-size="10.00">std::shared_ptr&lt; T &gt;</text>
<polyline fill="none" stroke="#bfbfbf" points="974.5,-529 1092.5,-529 "/>
<text text-anchor="middle" x="1033.5" y="-517" font-family="Helvetica,sans-Serif" font-size="10.00"> </text>
<polyline fill="none" stroke="#bfbfbf" points="974.5,-510 1092.5,-510 "/>
<text text-anchor="start" x="982.5" y="-498" font-family="Helvetica,sans-Serif" font-size="10.00">+ operator&#45;&gt;()</text>
</a>
</g>
</g>
<!-- Node15&#45;&gt;Node14 -->
<g id="edge15" class="edge">
<title>Node15&#45;&gt;Node14</title>
<path fill="none" stroke="#404040" d="M1036.67,-490.85C1039.79,-463.62 1044.61,-421.54 1048.3,-389.4"/>
<polygon fill="none" stroke="#404040" points="1048.33,-389.1 1045.04,-382.69 1049.7,-377.18 1052.99,-383.6 1048.33,-389.1"/>
<text text-anchor="middle" x="1057.5" y="-459" font-family="Helvetica,sans-Serif" font-size="10.00"> +keys</text>
</g>
<!-- Node16 -->
<g id="node16" class="node">
<title>Node16</title>
<g id="a_node16"><a xlink:title=" ">
<polygon fill="none" stroke="#bfbfbf" points="1019,-601.5 1019,-658.5 1048,-658.5 1048,-601.5 1019,-601.5"/>
<text text-anchor="middle" x="1033.5" y="-646.5" font-family="Helvetica,sans-Serif" font-size="10.00">T</text>
<polyline fill="none" stroke="#bfbfbf" points="1019,-639.5 1048,-639.5 "/>
<text text-anchor="middle" x="1033.5" y="-627.5" font-family="Helvetica,sans-Serif" font-size="10.00"> </text>
<polyline fill="none" stroke="#bfbfbf" points="1019,-620.5 1048,-620.5 "/>
<text text-anchor="middle" x="1033.5" y="-608.5" font-family="Helvetica,sans-Serif" font-size="10.00"> </text>
</a>
</g>
</g>
<!-- Node16&#45;&gt;Node15 -->
<g id="edge16" class="edge">
<title>Node16&#45;&gt;Node15</title>
<path fill="none" stroke="#404040" d="M1033.5,-601.34C1033.5,-588.84 1033.5,-573.84 1033.5,-560.18"/>
<polygon fill="none" stroke="#404040" points="1033.5,-560.11 1029.5,-554.11 1033.5,-548.11 1037.5,-554.11 1033.5,-560.11"/>
<text text-anchor="middle" x="1046" y="-575" font-family="Helvetica,sans-Serif" font-size="10.00"> +ptr</text>
</g>
<!-- Node17 -->
<g id="node17" class="node">
<title>Node17</title>
<g id="a_node17"><a xlink:title=" ">
<polygon fill="none" stroke="#bfbfbf" points="1110.5,-491 1110.5,-548 1180.5,-548 1180.5,-491 1110.5,-491"/>
<text text-anchor="middle" x="1145.5" y="-536" font-family="Helvetica,sans-Serif" font-size="10.00">connection</text>
<polyline fill="none" stroke="#bfbfbf" points="1110.5,-529 1180.5,-529 "/>
<text text-anchor="middle" x="1145.5" y="-517" font-family="Helvetica,sans-Serif" font-size="10.00"> </text>
<polyline fill="none" stroke="#bfbfbf" points="1110.5,-510 1180.5,-510 "/>
<text text-anchor="middle" x="1145.5" y="-498" font-family="Helvetica,sans-Serif" font-size="10.00"> </text>
</a>
</g>
</g>
<!-- Node17&#45;&gt;Node14 -->
<g id="edge17" class="edge">
<title>Node17&#45;&gt;Node14</title>
<path fill="none" stroke="#404040" d="M1130.92,-490.85C1116.37,-463.25 1093.79,-420.42 1076.76,-388.13"/>
<polygon fill="none" stroke="#404040" points="1076.59,-387.8 1070.25,-384.36 1070.99,-377.18 1077.33,-380.62 1076.59,-387.8"/>
<text text-anchor="middle" x="1146.5" y="-459" font-family="Helvetica,sans-Serif" font-size="10.00"> +elements</text>
</g>
<!-- Node18 -->
<g id="node18" class="node">
<title>Node18</title>
<g id="a_node18"><a xlink:title=" ">
<polygon fill="none" stroke="#bfbfbf" points="1126.5,-309 1126.5,-377 1276.5,-377 1276.5,-309 1126.5,-309"/>
<text text-anchor="start" x="1134.5" y="-365" font-family="Helvetica,sans-Serif" font-size="10.00">std::unique_ptr&lt; seqpacket</text>
<text text-anchor="middle" x="1201.5" y="-354" font-family="Helvetica,sans-Serif" font-size="10.00">_protocol::acceptor &gt;</text>
<polyline fill="none" stroke="#bfbfbf" points="1126.5,-347 1276.5,-347 "/>
<text text-anchor="start" x="1134.5" y="-335" font-family="Helvetica,sans-Serif" font-size="10.00">+ ptr</text>
<polyline fill="none" stroke="#bfbfbf" points="1126.5,-328 1276.5,-328 "/>
<text text-anchor="start" x="1134.5" y="-316" font-family="Helvetica,sans-Serif" font-size="10.00">+ operator&#45;&gt;()</text>
</a>
</g>
</g>
<!-- Node18&#45;&gt;Node1 -->
<g id="edge18" class="edge">
<title>Node18&#45;&gt;Node1</title>
<path fill="none" stroke="#404040" d="M1178.91,-308.66C1163.69,-288.51 1141.98,-263.75 1117.5,-248 989.29,-165.48 811.95,-127.22 713.28,-111.34"/>
<polygon fill="none" stroke="#404040" points="713.21,-111.33 706.66,-114.35 701.36,-109.47 707.9,-106.45 713.21,-111.33"/>
<text text-anchor="middle" x="1110" y="-222" font-family="Helvetica,sans-Serif" font-size="10.00"> &#45;acceptor_</text>
</g>
<!-- Node19 -->
<g id="node19" class="node">
<title>Node19</title>
<g id="a_node19"><a xlink:title=" ">
<polygon fill="none" stroke="#bfbfbf" points="1294,-314.5 1294,-371.5 1363,-371.5 1363,-314.5 1294,-314.5"/>
<text text-anchor="middle" x="1328.5" y="-359.5" font-family="Helvetica,sans-Serif" font-size="10.00">std::thread</text>
<polyline fill="none" stroke="#bfbfbf" points="1294,-352.5 1363,-352.5 "/>
<text text-anchor="middle" x="1328.5" y="-340.5" font-family="Helvetica,sans-Serif" font-size="10.00"> </text>
<polyline fill="none" stroke="#bfbfbf" points="1294,-333.5 1363,-333.5 "/>
<text text-anchor="middle" x="1328.5" y="-321.5" font-family="Helvetica,sans-Serif" font-size="10.00"> </text>
</a>
</g>
</g>
<!-- Node19&#45;&gt;Node1 -->
<g id="edge19" class="edge">
<title>Node19&#45;&gt;Node1</title>
<path fill="none" stroke="#404040" d="M1322.89,-314.44C1317.11,-293.16 1305.97,-264.64 1285.5,-248 1197.72,-176.66 863.39,-128.46 713.25,-109.95"/>
<polygon fill="none" stroke="#404040" points="712.95,-109.92 706.51,-113.16 701.04,-108.46 707.48,-105.22 712.95,-109.92"/>
<text text-anchor="middle" x="1281.5" y="-222" font-family="Helvetica,sans-Serif" font-size="10.00"> &#45;runThread_</text>
</g>
<!-- Node20 -->
<g id="node20" class="node">
<title>Node20</title>
<g id="a_node20"><a xlink:title=" ">
<polygon fill="none" stroke="#bfbfbf" points="1381.5,-303.5 1381.5,-382.5 1519.5,-382.5 1519.5,-303.5 1381.5,-303.5"/>
<text text-anchor="start" x="1389.5" y="-370.5" font-family="Helvetica,sans-Serif" font-size="10.00">executor_work_guard</text>
<text text-anchor="start" x="1389.5" y="-359.5" font-family="Helvetica,sans-Serif" font-size="10.00">&lt; boost::asio::io_context</text>
<text text-anchor="middle" x="1450.5" y="-348.5" font-family="Helvetica,sans-Serif" font-size="10.00">::executor_type &gt;</text>
<polyline fill="none" stroke="#bfbfbf" points="1381.5,-341.5 1519.5,-341.5 "/>
<text text-anchor="middle" x="1450.5" y="-329.5" font-family="Helvetica,sans-Serif" font-size="10.00"> </text>
<polyline fill="none" stroke="#bfbfbf" points="1381.5,-322.5 1519.5,-322.5 "/>
<text text-anchor="middle" x="1450.5" y="-310.5" font-family="Helvetica,sans-Serif" font-size="10.00"> </text>
</a>
</g>
</g>
<!-- Node20&#45;&gt;Node1 -->
<g id="edge20" class="edge">
<title>Node20&#45;&gt;Node1</title>
<path fill="none" stroke="#404040" d="M1423.93,-303.19C1410.08,-284.89 1391.99,-263.7 1372.5,-248 1350.67,-230.42 1343.06,-227.95 1316.5,-219 1104.52,-147.61 839.87,-117.76 713.43,-106.9"/>
<polygon fill="none" stroke="#404040" points="713.23,-106.88 706.91,-110.37 701.27,-105.88 707.58,-102.4 713.23,-106.88"/>
<text text-anchor="middle" x="1367.5" y="-222" font-family="Helvetica,sans-Serif" font-size="10.00"> &#45;worker_</text>
</g>
</g>
</svg>
