<?xml version="1.0" encoding="UTF-8" standalone="no"?>
<!DOCTYPE svg PUBLIC "-//W3C//DTD SVG 1.1//EN"
 "http://www.w3.org/Graphics/SVG/1.1/DTD/svg11.dtd">
<!-- Generated by graphviz version 2.43.0 (0)
 -->
<!-- Title: /home/varrick/Desktop/shinda_master/shinda/include/pubsub Pages: 1 -->
<svg width="94pt" height="95pt"
 viewBox="0.00 0.00 94.00 95.00" xmlns="http://www.w3.org/2000/svg" xmlns:xlink="http://www.w3.org/1999/xlink">
<g id="graph0" class="graph" transform="scale(1 1) rotate(0) translate(4 91)">
<title>/home/varrick/Desktop/shinda_master/shinda/include/pubsub</title>
<g id="clust1" class="cluster">
<title>clusterdir_d44c64559bbebec7f509842c48db8b23</title>
<g id="a_clust1"><a xlink:href="dir_d44c64559bbebec7f509842c48db8b23.html" target="_top" xlink:title="include">
<polygon fill="#ddddee" stroke="black" points="8,-8 8,-79 78,-79 78,-8 8,-8"/>
<text text-anchor="middle" x="43" y="-67" font-family="Helvetica,sans-Serif" font-size="10.00">include</text>
</a>
</g>
</g>
<!-- dir_e77076f5eea257c17b495473e7a5c0d6 -->
<g id="node1" class="node">
<title>dir_e77076f5eea257c17b495473e7a5c0d6</title>
<g id="a_node1"><a xlink:href="dir_e77076f5eea257c17b495473e7a5c0d6.html" target="_top" xlink:title="pubsub">
<polygon fill="#eeeeff" stroke="black" points="70,-52 16,-52 16,-16 70,-16 70,-52"/>
<text text-anchor="middle" x="43" y="-31.5" font-family="Helvetica,sans-Serif" font-size="10.00">pubsub</text>
</a>
</g>
</g>
</g>
</svg>
